187 697 145
964 3078 217
1795 3267 217
607 4702 238
2551 6121 238
2007 7415 262
2441 4857 238
1089 3408 217
343 366 126
664 6018 238
147 303 128
47 593 144
4301 6859 262
1 2520 209
2814 6284 262
21 3556 217
227 4558 238
1267 1450 177
2896 8920 262
605 2641 209
2569 4382 238
4240 6743 262
4118 5300 215
236 1336 182
699 918 179
1717 3702 217
1317 1419 172
7 3563 217
1 2945 217
293 969 179
2283 2936 217
1158 2118 182
2060 3033 217
113 719 171
956 4111 238
73 1413 182
2600 4480 238
160 222 125
2941 7192 262
3929 5064 215
2239 3440 217
1355 2166 180
2877 5844 238
123 262 128
205 2933 217
236 5879 238
1799 4678 238
608 5265 238
459 623 142
97 476 144
1185 4919 238
143 686 145
57 526 144
3994 6593 262
181 890 179
638 1217 182
619 2787 209
866 2643 209
2339 3586 217
3839 4171 189
4610 5979 236
1046 3395 217
1158 2387 183
1074 2269 183
287 4999 238
753 932 179
492 1953 182
2910 9808 262
450 5086 238
352 4033 238
41 347 144
595 2820 209
1106 3500 217
102 5528 238
1828 2552 209
1191 5652 238
1391 5507 238
1130 8945 262
2557 3379 217
111 5651 238
1852 5980 238
167 1013 179
69 216 125
327 3474 217
1541 4519 238
1418 4525 238
72 5562 238
38 796 171
66 5430 238
1002 4082 238
40 3177 217
3112 7609 262
306 7559 262
179 6443 262
85 1291 182
1327 2054 180
1795 3399 217
436 936 179
615 4162 238
303 4975 238
1274 5072 238
44 67 113
273 1848 182
2182 3140 217
1369 4842 238
1 10 20
213 657 145
49 3963 238
2918 6504 262
939 4315 238
2835 5476 238
1132 4135 238
5658 6210 262
204 2151 182
220 3859 238
1538 5661 238
962 4592 238
1959 3051 217
673 1224 182
3212 3778 238
621 1748 182
543 1350 182
3843 5777 236
187 1765 182
3483 3929 238
405 5925 238
34 6450 262
757 3965 238
30 257 128
2603 3776 238
1082 5157 238
724 1507 182
148 5804 238
21 1653 182
148 1114 179
635 8146 262
1064 2479 209
334 5964 238
1535 1978 180
131 1387 182
19 296 128
79 3564 217
1453 4861 238
897 6233 262
204 2838 209
1211 2924 217
51 2633 209
274 5177 238
659 1224 182
383 729 171
570 3146 217
843 4414 238
1715 5593 238
668 1124 179
1390 4012 238
5867 7066 262
2165 2610 209
141 3938 238
1677 1942 180
69 3516 217
119 368 144
2963 3014 155
791 4381 238
1016 6515 262
869 4541 238
1779 2121 175
308 1393 182
43 2777 209
26 4245 238
1921 3916 238
2393 3737 238
235 1450 182
257 5891 238
2271 3342 217
402 575 142
114 776 171
1299 4184 238
342 4327 238
16 592 144
56 3239 217
377 6657 262
264 691 145
1023 3548 217
57 2705 209
844 2854 209
2017 5783 238
396 1108 179
138 3423 217
1121 4833 238
830 7768 262
1283 3065 217
681 1721 182
6148 8180 262
560 4807 238
708 3035 217
228 798 171
84 3260 217
59 1656 182
1 4984 238
729 3662 217
30 5285 238
403 1772 182
387 596 142
995 1013 143
500 1228 182
4648 5769 236
3609 5437 238
287 1816 182
812 3615 217
2281 5690 238
1374 3236 217
5927 6838 262
780 4087 238
5923 6386 262
2750 3242 217
1215 1228 164
522 784 171
353 2392 183
3841 4030 189
1974 8970 262
147 3249 217
386 5898 238
3451 4050 238
2211 2951 217
2304 5363 238
82 2124 182
879 2786 209
1055 6165 238
601 958 179
2051 6164 238
934 5276 238
1494 1550 154
1521 2134 180
224 1841 182
575 1215 182
3065 3374 199
185 484 144
2414 3368 217
262 5019 238
347 827 171
1015 3620 217
98 428 144
1701 1786 180
1206 3520 217
1464 4364 238
653 7127 262
1610 2558 209
1017 1938 182
301 2512 209
817 3420 217
100 200 125
201 300 128
1 1000 179
552933 918035 525
479479 693230 509
17823 416748 449
32173 710426 509
759780 922773 525
73510 141674 354
201861 642176 509
36987 652973 509
401049 537802 470
68715 638865 509
1 999999 525
2 2 2
