808041 894840 525
634838 783035 504
524954 561855 452
318373 53362 443
367417 854776 525
134582 840134 525
537136 807535 509
383794 920095 525
386108 482930 449
925 880844 525
163682 75461 383
149015 357239 443
553491 541486 452
191165 696927 509
486596 211274 449
120757 498685 449
271796 844146 525
723025 369929 509
534667 601012 452
15980 500415 449
366114 867531 525
995931 591829 525
729731 514279 509
786468 190892 509
825585 9625 509
773568 402049 509
85092 357968 443
519387 541743 408
647181 652373 385
987981 232900 525
868465 432340 525
632839 904487 525
871988 426254 525
753026 332692 509
648503 418845 509
563328 314747 470
270584 927213 525
727332 41257 509
455151 849306 525
917344 63811 525
344391 145299 443
484757 777429 509
273442 590437 470
731042 11282 509
521763 950744 525
342104 994450 525
628220 7220 509
868792 238373 525
882645 965167 507
683122 37903 509
37630 472221 449
882502 48586 525
329804 762939 509
374142 788438 509
49229 898289 525
807498 46718 509
184395 860406 525
704011 81072 509
370132 168949 443
410001 284032 441
331776 409093 441
343396 942604 525
906645 925817 476
673408 467838 509
552097 846692 525
400630 906083 525
710661 678436 504
202167 966034 525
449923 985754 525
265685 546334 470
371546 596488 470
514397 97535 470
292006 836046 509
946355 178818 525
355657 389760 436
254229 247160 350
954043 177261 525
938962 430313 525
418455 396177 449
563227 676680 509
896847 885914 445
213082 462609 449
217192 59385 386
783467 661304 504
458686 193505 449
413575 877230 525
916656 223981 525
968197 703527 525
554388 338799 470
83921 83966 196
340923 296624 384
398160 730293 509
704084 329229 509
721969 426422 509
555120 538661 452
921690 736570 525
711674 35319 509
345804 636991 509
426696 283153 449
102633 403371 443
809260 459881 509
756991 142126 509
876462 899760 445
856365 332027 525
411101 535761 470
550278 741617 509
685504 945195 525
692112 551798 509
868908 2981 525
223801 543014 470
15231 880954 525
668264 826883 504
279840 539299 470
197539 800120 509
997004 732807 525
835121 73752 509
365628 560625 470
237197 926231 525
522306 652053 509
540540 825883 509
902692 102901 525
789838 779053 406
592829 453292 470
77881 59781 351
396153 883983 525
904382 440399 525
892136 638800 525
531679 785268 509
831957 746378 468
862431 210222 525
582565 161114 470
109279 464409 449
228196 630212 509
565131 171401 470
277723 512211 470
518288 487745 470
126957 473386 449
389811 82994 443
714755 379401 509
289250 9710 443
591133 252745 470
312933 94689 443
615204 616857 372
300654 867038 525
882520 606915 525
708887 200101 509
218187 232147 443
20697 106560 354
25292 675199 509
469997 825278 509
174463 396909 443
296510 625844 470
144314 211277 383
464720 454791 444
168619 373748 443
873562 62967 525
315387 958869 525
394672 614856 470
577459 985570 525
450118 714316 509
147574 741721 509
924162 576591 525
851353 844886 419
138232 894985 525
286915 656807 509
165697 89391 383
124173 9598 354
222220 604574 470
320220 283473 389
718035 376578 509
369133 896368 525
170728 425900 449
934604 790767 525
230256 278314 443
102371 969323 525
981560 187267 525
241587 255657 363
782507 596486 509
613638 989344 525
995369 150627 525
273876 503086 449
927183 690725 525
730228 519925 509
146908 945860 525
379646 488831 449
597394 326946 470
215403 36379 383
311886 951297 525
984395 700158 525
783088 548957 509
653597 498027 509
417364 53696 449
349727 557191 470
508321 725455 509
198090 761601 509
505436 133093 449
561235 454923 470
526464 512672 439
5782 885870 525
714311 250823 509
744227 232316 509
355712 247817 441
864202 374179 525
992283 548227 525
392351 594131 470
961146 382396 525
303644 320666 384
457848 111503 449
423843 511129 444
741499 302170 509
395882 381137 436
249310 732374 509
871592 554659 525
371233 603081 470
396069 326353 441
72172 38077 340
299118 897048 525
966876 24636 525
186554 198596 360
149923 321692 443
891477 791023 525
948880 99671 525
968720 639334 525
355213 776394 509
136201 685135 509
62585 686214 509
396727 969173 525
203558 883671 525
826385 861595 525
280629 53627 443
998029 409207 525
772978 655638 504
56163 606573 470
452225 150591 449
568666 743678 509
586922 291427 470
899722 903716 401
404296 79705 443
121655 498926 449
315076 846552 525
839297 511121 525
28286 296443 443
9217 153826 375
369004 694487 509
425622 103981 449
145439 723987 509
870234 378247 525
981545 633639 525
350983 418561 449
214965 595581 470
